443077 938766 525
976211 756709 525
143855 395042 443
63272 560631 470
369997 603462 470
328033 911924 525
735797 279081 509
617675 748811 509
43103 640227 509
732791 757767 424
914568 265290 525
30988 449677 449
894662 133895 525
313133 749437 509
364209 691827 509
785954 376319 509
399838 613499 470
843921 308925 525
617978 395678 470
833173 812286 450
40573 733828 509
532459 409597 470
528671 833825 509
828483 634372 504
486432 149810 449
141301 847016 525
823594 599632 509
206773 353747 443
288589 697656 509
921507 780661 525
730158 937474 525
585384 608813 403
546964 691526 509
294518 886505 525
412566 642904 509
112787 737357 509
797711 741787 468
350153 753139 509
32854 410806 449
235693 724274 509
197125 741757 509
508243 133569 449
790812 304745 509
773882 766369 468
850541 507635 525
666749 186109 509
919903 341783 525
556004 690867 509
564778 826277 509
14976 154751 375
740676 175966 509
313506 787094 509
446377 231654 449
638894 953011 525
850982 69690 525
312806 416096 449
180620 49861 383
428994 27699 449
922266 784431 525
307296 431960 449
483414 865296 525
851035 51311 525
682729 132106 509
437640 106261 449
433239 81181 449
467500 489084 413
673101 895218 525
952247 169380 525
984040 727698 525
253335 403444 441
390603 842783 525
206898 860468 525
923370 826481 525
646030 185354 509
553275 536838 452
300387 644156 509
137159 875479 525
305926 262771 407
950856 848205 507
534709 360369 470
513967 379537 470
492484 210027 449
51277 687274 509
466356 845303 525
729266 118473 509
636818 464742 509
331676 838269 525
334622 723506 509
566385 354390 470
955244 667748 525
888349 310478 525
509055 888559 525
174809 451085 449
137273 567121 470
425076 766350 509
22518 31479 308
572164 998677 525
155184 40768 375
283211 516289 470
722763 785495 468
787368 214694 509
133976 103917 354
835657 747018 468
773994 530435 509
842119 398680 525
711583 990649 525
890532 186461 525
273484 681303 509
663891 12694 509
266637 456566 449
291931 698521 509
259778 416081 449
603367 175158 470
15882 689061 509
148764 508387 449
780760 766737 468
425820 556996 470
930571 503812 525
808562 586177 509
796601 614587 509
158075 491539 449
887508 736313 525
767207 745309 424
985100 803493 525
546729 815563 509
558794 787558 509
741594 955757 525
575594 601802 434
243416 681941 509
798838 352661 509
162725 668332 509
345406 365160 441
24966 925459 525
577128 853369 525
120254 443690 449
36950 518010 470
531987 934070 525
847972 863684 419
433038 960155 525
406505 13713 443
554200 931256 525
220060 501841 449
847167 31561 525
632801 449038 509
905297 226451 525
811469 898360 525
897405 651846 525
363661 5705 443
810398 583458 509
62158 588021 470
867645 11813 525
336550 751331 509
268180 427903 449
847275 243769 525
718520 134838 509
899841 302059 525
900503 583167 525
937801 458724 525
752593 193135 509
744194 799481 468
721158 86214 509
221649 62203 386
412433 379858 449
868405 284045 525
6890 819463 509
957368 134332 525
134922 637295 509
70304 624437 470
890441 8257 525
546717 43673 470
125598 248561 443
166993 452551 449
39791 691207 509
123866 874177 525
812938 41078 509
579429 953998 525
999603 981027 440
652345 621799 509
98081 744352 509
525625 391620 470
77158 53913 351
509257 178304 449
98866 749555 509
162446 213239 373
914017 374923 525
169136 968266 525
879824 114501 525
39225 218214 386
232494 993162 525
242953 232708 381
252739 928925 525
563675 545267 452
155281 593016 470
377983 224863 443
261004 6882 443
126802 402262 443
675911 198669 509
436320 336129 449
829320 920222 525
152978 654998 509
212013 165482 373
529008 823894 509
412637 190345 449
528557 803272 509
385879 583193 470
725831 226329 509
465529 780839 509
706882 252400 509
168840 529111 470
807732 406930 509
973120 875635 507
266746 31988 443
804840 363799 509
796219 365620 509
304881 823273 509
963077 982255 458
569287 677847 509
274167 586905 470
721080 638455 504
130861 369541 443
908169 213762 525
381466 97344 443
662369 748559 504
832922 848965 525
943764 631503 525
558950 550558 421
885494 264518 525
686105 676651 380
760474 197432 509
834007 13438 509
722711 211467 509
466489 130928 449
755204 940385 525
33407 140382 354
428619 721627 509
111413 153633 375
152142 757188 509
466896 855262 525
345213 907991 525
751614 723423 424
83873 112699 354
614993 321557 470
385718 5981 443
846664 623316 525
875191 50585 525
70165 388396 443
362383 670324 509
165512 116515 383
44846 728259 509
340230 348434 441
314866 137973 443
666689 873297 525
941362 913366 507
409046 182769 443
533852 351642 470
189360 638466 509
897775 872163 445
61834 968639 525
959085 782958 525
532143 476724 470
972091 419077 525
871332 855302 388
648297 336588 509
955251 592242 525
683477 629258 442
956670 168876 525
940960 791807 525
167923 100093 383
424074 113156 449
896047 18868 525
233331 339859 407
435862 328467 449
543066 735076 509
577987 605805 434
678908 489369 509
197477 197266 267
74833 210417 383
616367 252744 470
770855 149080 509
796673 516592 509
580305 335479 470
915133 607098 525
71474 945046 525
475758 812576 509
351147 512174 470
299851 729324 509
746644 534243 509
551338 416491 470
992513 122063 525
730648 417908 509
