253504 263732
795669 373286
387068 672769
422913 199986
126723 214543
556653 533851
389568 811425
675400 374718
406748 24436
298841 146907
81904 446901
873638 371658
330880 103825
962640 440425
363570 614566
238471 457008
661255 82830
88458 841017
113552 419037
700937 504431
185178 575424
287964 293693
380723 665024
515490 213810
327468 566235
849600 695496
433330 491916
743810 775419
454127 971509
375946 776634
248273 530266
767130 539163
558755 721262
485898 665283
140030 903765
383758 406299
968666 499058
233057 964498
73399 532497
172056 146904
697755 48392
13735 206296
625586 413727
704187 783213
331748 177962
905493 667274
759498 352475
941561 142647
299952 499735
549467 676486
294982 332979
707937 546257
101965 986306
625383 326465
64707 110333
418196 384338
866137 879574
164340 222580
476471 627638
411536 265111
328154 255475
83918 689002
365478 793891
611508 221666
364482 783200
374912 577442
163712 651742
430699 850939
602259 516397
727382 492387
237866 437202
808213 510064
388105 654060
185228 947162
313309 705334
204784 970227
52233 695896
257859 317286
829186 595026
709010 604028
887016 343117
855186 265616
794989 570763
321807 422424
390810 299861
265663 325872
930396 507212
993310 556212
885013 506837
590147 244012
238073 725400
285257 180679
16403 222702
264572 154739
595502 508970
358209 126329
780222 368415
988186 845864
240086 949091
864726 840783
366710 217467
679687 598071
820994 723387
735548 245219
466917 664420
98981 769628
365864 542599
552888 737446
136040 693092
236090 74581
876235 761847
635251 118773
331574 634946
399870 294984
102638 906200
969961 779241
835388 939949
422834 958858
37172 493041
400063 603185
628614 694502
955660 301877
147582 33647
50120 350912
396264 752086
319081 841782
793304 6687
885866 548924
159400 796553
428601 512720
559987 59510
474072 320083
605264 485283
94218 436493
733333 184177
513687 76284
820547 978994
35380 460326
628883 11003
33384 98742
984304 865923
127084 693531
771535 244843
866230 427275
272459 827312
194209 692806
581841 920344
922825 306990
401915 137061
8233 985493
280723 35397
863666 934386
879362 115931
182941 481729
92848 787132
212646 571222
820695 447893
633855 190658
330192 643148
296423 521130
90262 821129
912300 936783
27272 680604
99891 506093
713991 84726
868463 478154
284635 994399
826092 526064
310600 111945
346371 803713
603419 592865
865684 128352
794986 596894
165131 770595
634971 793374
445443 542639
188396 162878
322215 652461
984226 59287
880829 525501
546118 744781
458945 348461
900813 297541
238500 647805
908097 243249
214354 341844
3905 827798
271493 984160
778876 231128
529446 310975
570756 275581
74539 313751
546305 113984
840466 569855
559535 398105
134677 754480
914331 423220
490834 328079
643077 827106
951422 381600
869868 104028
109552 132893
77037 312841
903975 849799
12051 945975
81201 768958
95503 144309
252792 567530
389361 581784
233580 326629
446504 406268
484301 306585
792714 409898
713361 100581
395410 126449
820737 536420
560332 959728
603991 648402
574486 216327
999645 432222
601414 424529
507924 49388
