252905 550753 470
104871 498698 449
569861 213653 470
548980 68268 470
689229 613201 509
674070 567208 509
865047 974172 507
591104 554929 434
995415 763605 525
376861 859646 525
274373 799115 509
164453 736031 509
313439 45698 443
968014 404286 525
962728 493242 525
149747 165285 383
572865 808473 509
533402 722485 509
721870 771204 468
568760 322402 470
397458 46454 443
785014 133001 509
422473 203961 449
671239 578621 509
385585 464407 449
64195 414240 449
293650 374725 441
467905 58657 449
540068 249326 470
110623 902606 525
744421 609201 509
162743 583305 470
574891 676126 509
972986 647455 525
240272 965569 525
287701 239837 407
700126 934652 525
89032 895176 525
679986 345013 509
894011 848754 445
562792 601360 434
876761 70671 525
476128 813333 509
699404 177531 509
778762 546207 509
695712 101383 509
428124 181284 449
178704 94174 383
550484 77205 470
473542 5273 449
853201 314222 525
581576 425117 470
767950 214338 509
998898 533068 525
442258 487350 444
865071 124955 525
655164 567526 509
194990 394315 443
389168 472100 449
719621 318329 509
131099 612984 470
684764 999852 525
946035 691659 525
656930 250741 509
402525 991674 525
965908 438096 525
261681 942876 525
280395 260740 407
538016 360218 470
59053 663915 509
37250 654891 509
163106 155906 383
244072 39320 443
175878 564353 470
964400 153829 525
33284 854914 525
40971 219578 386
172341 421296 449
572103 521191 452
559364 299212 470
324166 326464 384
964819 410653 525
816602 433670 509
457365 858386 525
901038 503383 525
920543 413093 525
505906 540815 470
300507 101010 443
502994 548520 470
226712 766801 509
468545 57057 449
973110 274749 525
562730 554688 390
825648 30643 509
33506 564928 470
867576 30077 525
408210 267433 441
845124 922773 476
569007 965705 525
70149 251846 443
149790 413111 449
316866 616913 470
80014 905776 525
383900 910126 525
304081 870079 525
820077 698019 504
135525 555048 470
152126 102710 375
198389 843691 525
150336 771775 509
639760 467107 509
679634 521967 509
496268 597839 470
95204 217002 386
730740 609156 509
743607 515152 509
593708 365625 470
92267 227503 386
412191 415993 374
607720 427262 470
381003 16141 443
182316 926965 525
75100 404944 443
412913 709841 509
369811 958565 525
175289 795515 509
822229 511849 509
269195 248641 407
481318 30823 449
174933 615501 470
15456 236932 443
559321 246547 470
550814 64873 470
245440 192182 443
551011 905659 525
337260 368736 441
653665 549835 509
939195 929819 445
35586 658135 509
732687 488144 509
815931 483486 509
695110 128816 509
866349 391732 525
531792 105291 470
19715 792246 509
731888 855733 525
485100 249061 449
928647 578832 525
50398 746834 509
228397 889565 525
315778 745559 509
228561 586878 470
81209 610713 470
765019 270298 509
344339 798584 509
382296 3751 443
190346 992230 525
932741 263960 525
908447 294187 525
795866 997196 525
963002 472797 525
419412 794191 509
107002 710183 509
215584 990972 525
947104 353322 525
714161 654941 504
642752 80468 509
818571 381315 509
901114 759184 525
80930 872485 525
389594 780307 509
488198 294361 449
156149 263955 443
422107 528111 470
143220 978828 525
692090 915896 525
979972 786071 525
422947 223886 449
356638 155083 443
729339 483858 509
413017 776296 509
982869 766171 525
719029 274050 509
482136 715626 509
399468 806993 509
44491 920675 525
570566 5872 470
724632 539906 509
111938 195088 383
771058 921200 525
29488 197208 383
360994 782261 509
608256 939151 525
559022 16349 470
451466 553416 470
753241 999932 525
887578 589280 525
156095 421889 449
654819 611223 509
222391 280747 443
687913 63916 509
127335 15088 354
282069 912321 525
588910 888948 525
709339 24864 509
876602 919232 476
861159 443845 525
148095 16365 375
437521 853714 525
17410 255811 443
507645 134193 449
193575 122633 383
634556 751108 504
359598 383846 423
827197 363654 509
846344 301424 525
191523 547662 470
174424 392412 443
629199 57354 509
386888 124787 443
231802 467192 449
857711 202876 525
930806 208583 525
743716 152400 509
667410 594971 509
462289 482726 413
954379 155286 525
712138 532753 509
803637 43198 509
861221 269138 525
305026 306707 309
847104 178900 525
701955 45819 509
771408 104727 509
637154 323917 509
118643 17797 354
268243 521904 470
356035 20642 443
63979 104518 351
548643 606732 434
748374 484925 509
217172 82020 386
743823 573539 509
151408 696569 509
878077 220805 525
669902 318207 509
443541 168519 449
537527 294592 470
813034 903887 525
764888 217795 509
812542 116299 509
864935 736033 525
285629 898192 525
