588291 462024
525713 804607
787799 622531
517452 595146
352010 140726
422356 34790
480932 116194
282073 863382
108237 211908
640026 724225
461427 119767
483065 549599
355817 672884
65942 81450
376630 708889
341939 634196
427217 156518
85121 36368
547526 146252
984535 434392
387870 491030
266619 183530
833033 227738
460738 695505
2800 458673
516620 175858
259806 925780
142485 209264
135187 668215
768533 318605
297931 834816
174338 389849
354180 733356
121509 320332
350658 112859
603855 291420
619499 159787
844017 519287
428761 721104
380015 184782
642092 56798
142796 62323
321668 946523
679824 294319
872920 116061
469815 785752
371596 762490
62877 279991
370599 838140
275891 868046
229898 392326
171100 901177
713777 570428
978657 509919
809215 923970
573959 818198
283999 571355
512583 41920
46485 102566
162476 869284
390688 389526
408888 925957
959401 838349
517702 439421
743214 150920
439619 579285
165552 896142
449127 187791
290660 131938
798810 668622
422998 719324
238415 657493
415563 153639
79922 420721
173342 246869
134091 279249
730070 681438
466493 112297
549895 503750
233745 197791
21009 457290
511379 434056
732086 305701
562836 442998
571058 261977
778803 34290
453353 11509
202310 659309
995814 824713
300821 182543
570025 726428
804573 364700
705864 464994
342557 431933
405820 741005
445179 820589
921562 918119
948027 29369
746119 673036
749701 477074
956574 75455
269012 708399
56865 421326
568466 172126
498043 285773
600671 110860
924145 503398
321292 551443
360942 756945
914520 326252
560321 481733
30796 899341
202129 449087
681243 180997
813332 308459
943308 267956
112161 180280
282442 953280
815637 31493
913430 832132
417082 824608
339241 335531
127404 806353
252298 940473
801331 962283
228289 812604
639266 505672
864728 461118
826698 502559
387271 362508
350470 705305
820190 43735
569201 336197
417530 638508
322478 758505
937140 401239
247304 842283
480750 855485
784463 845884
119629 916971
39485 869088
838434 787154
175951 416955
796283 85007
401117 922504
332088 446839
932512 628650
966552 861021
430272 77050
942357 601036
600467 659407
973322 412200
687602 494511
590014 564220
474628 473253
339318 144723
73748 449403
192268 276789
697601 226520
285155 203063
730416 533099
93567 64225
94004 747587
641086 750133
168567 791625
302379 344118
672319 865029
726537 70525
417005 922156
277893 533941
474191 975511
770184 103769
108686 801956
851252 683048
179903 391990
882414 437415
52997 75649
153935 545256
911319 156913
951601 898597
929996 802673
975461 75272
665805 428799
236483 116028
393174 351144
328763 782888
118250 773608
68575 695669
623425 326008
364840 668832
782141 394826
330348 29018
452294 687068
149203 273267
271319 626341
352722 208283
64195 989555
844460 809750
866095 419041
428909 256463
13586 714444
594103 359953
850100 436276
354862 886406
480267 893938
514909 366987
962654 516583
419646 489662
557231 586892
651245 940335
107996 596896
305787 973226
766937 748268
964433 266756
159816 339620
10030 885036
725566 346081
678861 195129
89601 361977
148793 644215
450096 817815
354970 110871
449883 499100
762767 2882
249644 632387
907812 604461
194149 260587
700060 475699
747448 379539
316378 866122
149994 205872
820030 582090
493671 612306
491800 534376
943295 985564
929138 851456
330496 147688
591601 701004
3061 196973
448944 803726
854516 862822
921068 819474
427493 895215
560926 715655
754037 28915
846290 839181
